iso2,cname,iso3,ccont,popdata,rsquared,progress,final,start,peak,floor,beta,mu,maxcur
AD,Andorra,AND,Europe,76177.0,0.4050085491811573,0.29250241764011653,2922.3513447601354,2020-01-24,2020-05-11,2021-04-09,50.03108785596858,132.35877701100816,299.9323026416256
AE,United_Arab_Emirates,ARE,Asia,9770526.0,0.970967161646003,0.8103113279197454,60555.581651136046,2020-03-16,2020-05-18,2020-11-02,31.88509222645274,139.11734803708762,9703.833759129217
AF,Afghanistan,AFG,Asia,38041757.0,0.7765293255558086,0.5049714920634235,63031.02829327592,2020-04-10,2020-06-23,2020-11-30,44.58035095860891,174.8357630482302,7253.463321146081
AL,Albania,ALB,Europe,2862427.0,0.2772785081823565,0.36451511393229724,7013.85538249288,2020-03-03,2020-07-06,2021-03-28,76.98574775248447,187.5289461083287,472.8591987923118
AM,Armenia,ARM,Europe,2957728.0,0.36643705077985783,0.014079014281032089,1346351.8762782256,2020-02-26,2021-01-23,,139.93978360375988,389.3946066606822,68107.9278877523
AT,Austria,AUT,Europe,8858775.0,0.990413021645353,1.1345325547718903,15701.62083500697,2020-03-13,2020-03-29,2020-05-12,8.252806671212149,88.65953990705074,8765.056332266993
AU,Australia,AUS,Oceania,25203200.0,0.35010505175484247,0.399311118735019,19834.058197635874,2020-02-19,2020-04-14,2020-08-02,36.46818111463959,104.6393373136724,2783.994682038929
AW,Aruba,ABW,America,106310.0,0.8596791627581407,1.9409965829922133,53.065523609122806,2020-03-29,2020-04-09,2020-05-07,6.277572966775499,99.99237987425212,36.20798997878105
BA,Bosnia_and_Herzegovina,BIH,Europe,3300998.0,0.36667740229257445,0.4377182324815114,10147.584436535704,2020-02-22,2020-06-11,2021-02-15,64.56993557615381,163.11723336235087,809.8647100038942
BB,Barbados,BRB,America,287021.0,0.6885202920331537,0.7102616094321113,136.56939625082663,2020-03-06,2020-04-11,2020-06-21,24.078192529516837,101.91175862586022,28.80740024332351
BD,Bangladesh,BGD,Asia,163046173.0,0.9438722199324521,0.20909016666926888,711620.5226044257,2020-04-17,2020-07-31,2021-04-09,58.23914642465402,213.48882932538186,62977.098762819245
BE,Belgium,BEL,Europe,11455519.0,0.9856018385988153,1.0436811558096346,59019.940771291236,2020-03-08,2020-04-07,2020-07-02,14.656187931081242,98.00051025759329,19986.798607803266
BF,Burkina_Faso,BFA,Africa,20321383.0,0.9770476532442331,1.089620190983834,882.8764444346336,2020-04-02,2020-04-09,2020-04-17,13.77320445937591,99.71074851791089,316.6038673610137
BG,Bulgaria,BGR,Europe,7000039.0,0.4942044638384761,0.3558440336066054,14416.913186636775,2020-03-14,2020-07-02,2021-02-17,68.04317259343634,183.8067098563733,1094.3692247346912
BH,Bahrain,BHR,Asia,1641164.0,0.7163046475113066,0.1125625374593413,232294.6337820271,2020-02-19,2020-09-19,,94.03272028751053,262.570707562167,13327.037813732059
BM,Bermuda,BMU,America,62508.0,0.721419845816601,0.7326727750820601,199.27039584780752,2020-03-03,2020-04-21,2020-08-23,25.7695309315993,111.58184568579614,39.34089336647892
BN,Brunei_Darussalam,BRN,Asia,433296.0,0.9546108167912523,1.2652916356341024,111.43675973906024,2020-03-14,2020-03-23,2020-04-15,5.847763981897166,83.1669001004267,79.68825290807341
BO,Bolivia,BOL,America,11513102.0,0.8567488340937427,0.047015964947203025,691115.6796280607,2020-04-05,2020-10-13,,88.6245200079606,287.43950551919573,42262.39710439464
BQ,"Bonaire, Saint Eustatius and Saba",BES,America,25983.0,0.7202344610730889,0.20330745486377846,34.43010982557919,2020-03-31,2020-05-29,2020-10-05,35.89105152732764,149.80283687454207,4.90937619716524
BR,Brazil,BRA,America,211049519.0,0.9483161034791788,0.1874304113991654,7679768.2635994535,2020-03-24,2020-08-09,,64.95877395087747,221.98494984053815,611655.6028124259
BS,Bahamas,BHS,America,389486.0,0.8719611740589271,0.8682347866515109,119.7832678394549,2020-03-21,2020-04-16,2020-06-06,18.21843014690835,107.29809039986645,33.052440686164125
BT,Bhutan,BTN,Asia,763094.0,0.7202699290680683,0.6471844760266854,118.97688355651587,2020-05-11,2020-06-05,2020-07-16,24.38273634494648,157.29647311358576,24.792507578250717
BY,Belarus,BLR,Europe,9452409.0,0.9897687925616206,0.8155103388352305,76545.89961482515,2020-03-24,2020-05-20,2020-10-25,27.941709666981247,140.5350549517929,13963.104736296042
CA,Canada,CAN,America,37411038.0,0.9874237990585075,0.9192644606660169,113343.87692028527,2020-03-12,2020-04-27,2020-08-23,24.379238475593457,117.65739705455205,23617.644721537225
CD,Democratic_Republic_of_the_Congo,COD,Africa,86790568.0,0.8692074190266401,0.48307986550579246,14739.736197897262,2020-05-21,2020-06-22,2020-08-06,39.52961079665837,173.7630268916763,1910.5198306673394
CF,Central_African_Republic,CAF,Africa,4745179.0,0.8416584312385482,0.34938622496648447,10717.36134131227,2020-04-30,2020-07-09,2020-12-18,40.22954645191588,190.72978178617367,1365.324333773886
CG,Congo,COG,Africa,5380504.0,0.45066355191455987,0.32574204931548106,4229.90506178416,2020-04-17,2020-07-10,2020-12-09,61.568409019135395,191.87477534795687,354.1329266666336
CH,Switzerland,CHE,Europe,8544527.0,0.9982697184928891,1.0346076042834318,30785.584668169897,2020-03-09,2020-03-30,2020-05-31,10.52206712529182,90.33535629324633,14036.799117454702
CI,Cote_dIvoire,CIV,Africa,25716554.0,0.19259190260007464,0.035117764875130686,227195.4279500231,2020-04-16,2020-12-06,,127.63155298219492,341.22576850769514,11142.759610513127
CL,Chile,CHL,America,18952035.0,0.48732018990287257,0.08003504741574172,3363132.6337938607,2020-03-05,2020-09-28,,90.53341961693032,272.1477469503278,200275.4263763401
CM,Cameroon,CMR,Africa,25876387.0,0.3531324137558391,0.17088631297022178,72146.71947829812,2020-04-04,2020-08-17,2021-06-04,82.73249137523305,230.34358661071624,4581.731255926212
CN,China,CHN,Asia,1433783692.0,0.72945695411811,0.8008354383733487,105909.3990299401,2020-02-01,2020-02-12,2020-03-01,9.750123830114934,42.56717854047399,51571.47499632349
CO,Colombia,COL,America,50339443.0,0.6262531944454756,0.03763507591124752,2452679.425004784,2020-03-31,2020-11-06,,103.70288129218639,310.6570311738724,134511.476383959
CU,Cuba,CUB,America,11333484.0,0.8743801059583957,0.8996243828666326,2609.978166614003,2020-03-26,2020-04-23,2020-06-10,21.123878381133093,113.60927772559124,624.8258542480207
CV,Cape_Verde,CPV,Africa,549936.0,0.33667635316115585,0.1842914299082154,6767.312457169042,2020-03-20,2020-08-17,,77.00722867894338,230.01996924711898,459.1703824995045
CW,CuraÃ§ao,CUW,America,163423.0,0.7388280115423626,0.20592722604995992,121.11150563765727,2020-04-30,2020-07-18,2020-12-08,57.98961465073723,199.60886456866783,10.756172865192081
CY,Cyprus,CYP,Europe,875899.0,0.9554484778570436,1.104360317782938,904.5960669843205,2020-03-17,2020-04-06,2020-05-27,11.177959028414795,96.94878165415825,391.4650520375679
CZ,Czechia,CZE,Europe,10649800.0,0.4771543296526081,0.5611924109010055,21463.524539165555,2020-02-12,2020-04-28,2020-10-15,44.88609933013494,119.15498385122882,2453.029008432605
DE,Germany,DEU,Europe,83019213.0,0.992167963283138,1.0962001491399747,178095.213865065,2020-03-10,2020-04-03,2020-06-09,12.886881865210013,94.46151447896408,67840.65856984686
DJ,Djibouti,DJI,Africa,973557.0,0.01886001516764938,0.019177785152313012,168271.93428552093,2020-01-22,2021-01-24,,162.9416257175215,390.46709755471034,7750.6386376152695
DK,Denmark,DNK,Europe,5806081.0,0.9079737945782305,0.987620178511064,12954.37274256646,2020-02-28,2020-04-11,2020-07-28,23.68220550481271,101.98763703667649,2777.020735199108
DM,Dominica,DMA,America,71808.0,0.20053075505835669,0.05095119997063947,337.38583897998114,2020-03-01,2020-08-23,,101.85053954476268,235.87322272898672,17.85023811052363
DO,Dominican_Republic,DOM,America,10738957.0,0.8118661037661261,0.4422571372744256,75393.52841730557,2020-03-07,2020-06-23,2021-03-22,56.46868093559407,174.63250909153757,6867.811218397798
DZ,Algeria,DZA,Africa,43053054.0,0.8525866255884843,0.7171823824548701,19898.695663511742,2020-03-29,2020-05-23,2020-08-28,42.43833193599543,143.79046659236923,2404.0784391566463
EC,Ecuador,ECU,America,17373657.0,0.7542250540893892,0.773011585352147,75362.96885233221,2020-03-07,2020-05-14,2020-11-02,35.868149596634964,134.618749173711,10753.11529489252
EE,Estonia,EST,Europe,1324820.0,0.953309047176629,1.1147896720698005,1784.193063348951,2020-03-08,2020-04-02,2020-06-05,13.859666577816911,93.3915415205473,635.8706967102588
EG,Egypt,EGY,Africa,100388076.0,0.7403957722216424,0.11003714497576336,616969.2974505299,2020-04-12,2020-09-09,,82.89091829102627,252.97932823260626,39374.131390206116
EL,Greece,GRC,Europe,10724599.0,0.7096563943705969,0.6772732428799277,5067.375761253816,2020-03-03,2020-04-15,2020-07-07,30.8721678166808,106.08776030771396,838.2261094014639
ER,Eritrea,ERI,Africa,3497117.0,0.30795265126829635,0.5280631635024226,384.42370901624736,2020-06-06,2020-06-24,2020-07-23,17.363410074783534,175.84816853375693,111.03652271056167
ES,Spain,ESP,Europe,46937060.0,0.9912131930625555,1.062136334809164,235053.6290097417,2020-03-07,2020-04-01,2020-06-13,12.085313007525247,91.80917346612065,94919.59496288063
ET,Ethiopia,ETH,Africa,112078727.0,0.9446165559140797,0.5790343264952728,10096.119658761749,2020-06-04,2020-06-21,2020-07-15,21.589397007568238,172.60602180113185,2366.7363686014432
FI,Finland,FIN,Europe,5517919.0,0.9746453381406548,0.9656678833789751,7493.259449719562,2020-03-10,2020-04-16,2020-07-14,21.395732471319093,107.10566403562888,1772.3499217539172
FK,Falkland_Islands_(Malvinas),FLK,America,3372.0,0.522046979710654,0.9812577640807191,13.248302816924882,2020-03-30,2020-04-14,2020-05-28,6.978081936454302,104.61225552723242,8.396928092087986
FO,Faroe_Islands,FRO,Europe,48677.0,0.9716702968137699,1.8095985055506087,103.3378395408772,2020-03-20,2020-03-28,2020-04-24,4.270049918394417,88.3295552309125,87.38037619127262
FR,France,FRA,Europe,67012883.0,0.9703811770689583,1.0820384267772307,153154.44987806675,2020-03-09,2020-04-06,2020-06-18,14.491321271974659,96.5428432423615,52393.56044794932
GA,Gabon,GAB,Africa,2172578.0,0.8083342897432669,0.5289677229303809,10421.120198412626,2020-04-05,2020-06-21,2021-01-02,40.96991773659402,173.07320891624568,1303.8403715830505
GD,Grenada,GRD,America,112002.0,0.6972512064485372,0.7983095171162644,28.810878901755594,2020-03-11,2020-04-13,2020-06-10,26.53561719449265,104.00363333417253,5.528061480202238
GE,Georgia,GEO,Europe,3996762.0,0.8424990706391763,0.8118702569959416,1146.7341603870339,2020-03-22,2020-04-29,2020-07-03,30.288818496697992,119.81202602734233,193.26236505254641
GG,Guernsey,GGY,Europe,64468.0,0.9229904156438233,0.9979368736793839,252.5209826858871,2020-03-22,2020-04-05,2020-05-19,6.86569267374313,96.08516143821419,161.9170751172748
GH,Ghana,GHA,Africa,30417858.0,0.6519678647453455,0.4249667344605401,42640.07425831475,2020-04-09,2020-06-28,2020-12-13,51.18340751139433,180.42242289539678,4280.534813663486
GI,Gibraltar,GIB,Europe,33706.0,0.4809784609579991,0.5025713557090232,354.1759923083286,2020-02-07,2020-04-22,2020-11-17,36.90040839826073,112.82621086535661,49.13715844743025
GL,Greenland,GRL,America,56660.0,0.0736374460870926,0.01892634413680776,456.8889397342143,2020-02-20,2021-01-16,,185.8607757569696,382.47867080807237,19.02918948276818
GN,Guinea,GIN,Africa,12771246.0,0.9592745286367861,0.7994180807391204,6759.910941320249,2020-04-06,2020-05-19,2020-08-11,29.476638776589326,139.794821895802,1170.0735080427487
GQ,Equatorial_Guinea,GNQ,Africa,1355982.0,0.1540254894222545,0.021840877647612226,80880.00091445819,2020-03-22,2020-11-14,,110.66266178793413,319.0756298320803,4261.07558562095
GT,Guatemala,GTM,America,17581476.0,0.5254664979451722,0.02637497205148459,656175.5881929231,2020-04-19,2020-11-11,,98.71453600618499,316.0192647059202,37575.08205494142
GU,Guam,GUM,Oceania,167295.0,0.19359820013350662,0.21798196590546715,1272.5437285466583,2020-02-04,2020-06-29,2021-06-25,78.75794779724184,181.22484997797213,83.8894143659337
GW,Guinea_Bissau,GNB,Africa,1920917.0,0.8111006349316083,0.8231155651424921,2009.438197457079,2020-04-03,2020-05-16,2020-08-18,25.375599396372447,136.7103646231389,402.6990572779587
GY,Guyana,GUY,America,782775.0,0.2739358146214108,0.20382160185615153,1187.6399594973652,2020-03-26,2020-08-03,2021-04-11,89.56116515206008,216.21511729497215,69.89958900926867
HR,Croatia,HRV,Europe,4076246.0,0.35786357825031834,0.18107736465027585,15573.357761594463,2020-02-17,2020-06-16,2021-03-19,68.74277110763119,168.02605999743085,1169.3122175841315
HT,Haiti,HTI,America,11263079.0,0.8861213497387143,0.7348975850088075,8218.831922056052,2020-05-06,2020-06-12,2020-08-30,22.78692693366068,163.77894918207213,1828.8203778954824
HU,Hungary,HUN,Europe,9772756.0,0.9645662511802362,0.983324699361763,4227.494745270363,2020-03-19,2020-04-18,2020-06-16,19.393356196601307,108.50895295127967,1098.751564572737
ID,Indonesia,IDN,Asia,270625567.0,0.7399598087627525,0.22045186236163244,258103.75897482742,2020-04-22,2020-08-06,2021-02-14,78.85277466275666,219.30229714023113,17093.76733826733
IE,Ireland,IRL,Europe,4904240.0,0.9475820632193817,0.9932947876799259,25648.98186922124,2020-03-14,2020-04-14,2020-07-13,15.242496376758883,105.30275309047751,8372.833931720652
IL,Israel,ISR,Asia,8519373.0,0.4833022226210938,0.4053361728177333,64737.25920852282,2020-02-07,2020-05-23,2021-02-18,55.06710559519866,143.94420199385615,6042.232069615701
IM,Isle_of_Man,IMN,Europe,84589.0,0.9139501934052463,0.9340437516813054,359.7261899083318,2020-03-22,2020-04-10,2020-06-04,8.815173195841588,100.64580149146,190.46459405123676
IN,India,IND,Asia,1366417756.0,0.9460001671149477,0.06444021466500462,8936653.304122597,2020-04-25,2020-10-04,,89.72565658511516,278.40866550984566,538046.0947508989
IR,Iran,IRN,Asia,82913893.0,0.6872431930682477,0.626270883848563,367412.4503461525,2020-02-10,2020-05-18,2021-01-10,53.7521878080099,138.96180022997592,35121.32141607353
IS,Iceland,ISL,Europe,356991.0,0.8332553467254261,0.8967297079841126,2059.7064907687027,2020-03-03,2020-03-28,2020-06-10,11.877405653249399,87.84851689433381,844.757264175577
IT,Italy,ITA,Europe,60359546.0,0.9898911805075207,0.9917906392759437,242752.84567636723,2020-02-28,2020-04-01,2020-07-04,17.085020504528625,92.4847271550006,71177.39018042342
JE,Jersey,JEY,Europe,107796.0,0.8501938109959376,0.9715704885831993,328.33438618044516,2020-03-15,2020-04-08,2020-06-15,12.305161897309093,98.99370198446233,130.45210358064242
JM,Jamaica,JAM,America,2948277.0,0.7252240005459661,0.7347294463943833,962.2585327596623,2020-03-28,2020-05-05,2020-07-12,29.004556058743884,125.88132550643336,169.2231781310619
JO,Jordan,JOR,Asia,10101697.0,0.7798126056644382,0.31626507130114984,3575.9542456889817,2020-04-13,2020-06-14,2020-09-17,60.69790834391697,166.27288988210438,303.3063383717645
JP,Japan,JPN,Asia,126860299.0,0.8925250316638286,1.0366173246183594,18207.297477825956,2020-03-27,2020-04-15,2020-05-18,15.37497628278495,105.58120969002513,5895.283666399735
KE,Kenya,KEN,Africa,52573967.0,0.7646479431990029,0.1443732553257451,45918.61080841371,2020-05-21,2020-08-17,2021-01-26,63.6228692421429,229.60889987515256,3734.0574723783675
KG,Kyrgyzstan,KGZ,Asia,6415851.0,0.13573388085289353,0.044897535490975714,105184.96168510549,2020-03-26,2020-12-02,,129.59896210147093,337.1303069095911,5073.780845673415
KM,Comoros,COM,Africa,850891.0,0.3319417142157001,0.4426428977657166,684.4775801664566,2020-04-30,2020-06-27,2020-10-21,38.683224085428655,178.77660089539626,90.63906476483571
KN,Saint_Kitts_and_Nevis,KNA,America,52834.0,0.7445192035334065,1.0551062482770663,14.21657773754465,2020-03-20,2020-04-05,2020-05-09,10.64220887903652,95.83949682231352,6.4224478433471495
KR,South_Korea,KOR,Asia,51225321.0,0.7349729928958758,1.061449210804543,12156.964147365255,2020-02-11,2020-03-03,2020-04-11,14.352155666647272,62.51354035872393,4195.944743812582
KW,Kuwait,KWT,Asia,4207077.0,0.7343535479671441,0.4521306791408683,103666.97077637269,2020-03-08,2020-07-03,2021-06-09,55.83543406908119,185.33963194194894,9551.52369619316
KY,Cayman_Islands,CYM,America,64948.0,0.08563524147382941,0.14051088848670254,1295.0302948332612,2020-01-08,2020-09-13,,126.65155405583803,256.52254254271264,58.14188277100797
KZ,Kazakhstan,KAZ,Asia,18551428.0,0.6971746481280229,0.6163223042317176,68949.85223686129,2020-03-27,2020-07-07,2021-03-03,57.34215149057322,188.65599939033834,6188.975156536235
LB,Lebanon,LBN,Asia,6855709.0,0.6065960925601706,0.4465489930914638,3990.8184252505166,2020-03-20,2020-06-10,2020-10-25,67.7960760870734,161.9272272947343,303.634315983582
LC,Saint_Lucia,LCA,America,182795.0,0.5350133911979067,0.4061663272066716,46.77829490613775,2020-03-18,2020-04-28,2020-07-04,38.006764844569425,119.4840218235629,6.303501965724511
LI,Liechtenstein,LIE,Europe,38378.0,0.9063841256329184,1.0071926706583596,82.40727163527352,2020-03-11,2020-03-25,2020-05-04,6.9152623173304475,84.52514206831553,52.58487249321883
LK,Sri_Lanka,LKA,Asia,21323734.0,0.5860070277659545,0.395322383594439,5195.6433027803305,2020-04-24,2020-06-03,2020-08-05,36.84776290222132,154.90915102118007,721.8719838021018
LR,Liberia,LBR,Africa,4937374.0,0.4181937001349301,0.058754693095138776,12739.48107113961,2020-05-03,2020-10-10,,100.83321445611783,283.5279219473224,698.3872233977305
LT,Lithuania,LTU,Europe,2794184.0,0.8904048682905328,0.8545682199363965,2127.3901338370524,2020-03-09,2020-04-10,2020-06-21,19.612960684974922,101.3337311302388,547.0729981297266
LU,Luxembourg,LUX,Europe,613894.0,0.4957478247773371,0.6671944156063062,6512.344540053891,2020-02-11,2020-04-04,2020-09-06,25.703481864334933,94.84920559104619,1288.9642526499113
LV,Latvia,LVA,Europe,1919968.0,0.8766211431607136,0.9281679197501873,1207.7555964904245,2020-03-05,2020-04-07,2020-06-17,20.83036782090638,98.29297101626044,293.12785640314934
LY,Libya,LBY,Africa,6777453.0,0.6767787710048968,0.479622280963766,1788.9057528066794,2020-05-25,2020-06-28,2020-08-26,26.940931865073086,179.82686098351914,338.1731328937487
MA,Morocco,MAR,Africa,36471766.0,0.6158649537999279,0.6544244423796168,19307.71563228206,2020-03-26,2020-05-20,2020-08-30,40.734859776891064,141.0952025231703,2429.3584932246013
MC,Monaco,MCO,Europe,33085.0,0.9127424737458446,0.9533161062552512,108.04391043449093,2020-03-13,2020-04-02,2020-05-31,10.076044379634478,92.87218349649646,51.15814129168444
MD,Moldova,MDA,Europe,4043258.0,0.6255621277688719,0.3393371862464195,49592.238612373534,2020-02-29,2020-07-07,2021-06-16,65.6905463315025,188.7653162189556,3896.8180973064
MG,Madagascar,MDG,Africa,26969306.0,0.5562748735557972,0.3556726525485258,6473.7621476927725,2020-05-25,2020-07-07,2020-09-09,42.35797532093635,188.664661433097,783.7276173324957
MK,North_Macedonia,MKD,Europe,2077132.0,0.15896972970681397,0.18978095652443325,32860.89638181723,2020-02-17,2020-08-22,,95.3285600633599,234.62197141262502,1840.2340296989998
ML,Mali,MLI,Africa,19658023.0,0.8496163314014492,0.5655444401599565,3893.227072029605,2020-04-30,2020-06-06,2020-07-30,42.216219605610036,158.08284209481897,472.85080668740034
MN,Mongolia,MNG,Asia,3225166.0,0.9336881694102271,0.8453562841156063,260.24530027615435,2020-05-10,2020-05-21,2020-06-10,10.06767857653879,141.97124637620635,123.28935272089974
MP,Northern_Mariana_Islands,MNP,Oceania,57213.0,0.31782384305667444,0.3557143381722475,84.29437117849687,2020-03-19,2020-06-09,2020-11-27,51.23378125945305,161.05031644491052,8.451781259467037
MR,Mauritania,MRT,Africa,4525698.0,0.6754345815266963,0.17821562433683427,23277.720993927756,2020-05-13,2020-07-25,2021-01-29,38.35173312839622,206.83125531007758,3109.028162752295
MS,Montserrat,MSF,America,4991.0,0.3545534784269562,0.8024303323610211,13.708355175999246,2020-03-21,2020-04-10,2020-06-06,10.12519425058461,100.8587331350238,6.4640362820287
MT,Malta,MLT,Europe,493559.0,0.6615614210962923,0.7424509190139915,902.4164101282578,2020-02-25,2020-04-15,2020-08-11,28.333393381220112,106.07626754991011,162.39319723214527
MU,Mauritius,MUS,Africa,1269670.0,0.8231827880373032,0.8345350738703491,408.610747081646,2020-03-22,2020-04-05,2020-05-07,8.849640702377252,96.2452211369263,215.5242082532213
MV,Maldives,MDV,Asia,530957.0,0.8673543800987342,0.866062637704611,2750.3782664807145,2020-03-31,2020-05-18,2020-09-28,24.671385972314862,139.40253600550642,566.5814561605908
MW,Malawi,MWI,Africa,18628749.0,0.16896375930557886,0.010833158050240725,116696.77831124037,2020-06-06,2020-11-07,,84.39635161415605,311.6722388491952,7551.097084257561
MX,Mexico,MEX,America,127575529.0,0.9853264285073263,0.28521153081151523,810817.9155813695,2020-04-03,2020-07-19,2021-04-14,57.09443914926738,200.79750828050405,73119.99583899126
MY,Malaysia,MYS,Asia,31949789.0,0.74222829744353,0.80202705509597,10772.699978903092,2020-03-05,2020-04-13,2020-06-22,30.077428449848618,103.71820680925865,1828.0217608997166
NC,New_Caledonia,NCL,Oceania,282757.0,0.2838963618394391,0.050121285128326795,397.3248168652939,2020-03-30,2020-08-25,2021-05-24,106.20061461990397,237.52203793157503,20.30442547315516
NG,Nigeria,NGA,Africa,200963603.0,0.7538944522725749,0.2636386977997111,100189.25624528577,2020-05-12,2020-07-21,2020-11-16,58.34981246916622,203.4208236504267,8845.723300828273
NI,Nicaragua,NIC,America,6545503.0,0.792222898190246,0.8923342778389355,2822.9331345192227,2020-05-13,2020-06-06,2020-07-27,15.357888900522296,157.85359216871586,915.2300720036961
NL,Netherlands,NLD,Europe,17282163.0,0.9865116881487561,1.0778837005620705,46697.987894008205,2020-03-10,2020-04-08,2020-06-25,14.891627302891882,99.02626044108732,15581.63212750444
NO,Norway,NOR,Europe,5328212.0,0.9693367045925136,1.077642713610848,8246.70355745495,2020-03-04,2020-03-29,2020-06-01,13.519085770118526,88.73131329877693,3008.3267799694877
NP,Nepal,NPL,Asia,28608715.0,0.6981206247831027,0.1331999407921413,105384.836180196,2020-05-17,2020-08-06,2021-02-19,44.76648222474628,219.07154929126617,12082.75985999762
NZ,New_Zealand,NZL,Oceania,4783062.0,0.9935608183853464,1.0743119289747398,1098.3774527442165,2020-03-23,2020-04-01,2020-04-23,5.806687715569173,91.8567858892117,788.2935669800713
OM,Oman,OMN,Asia,4974992.0,0.5739132669204765,0.055722357928450574,701443.0221473363,2020-03-19,2020-10-10,,90.2535219996549,283.5745156862862,42144.433461299406
PA,Panama,PAN,America,4246440.0,0.38762976758381423,0.1809474953997071,185433.475147082,2020-02-17,2020-08-20,,87.3921450163445,232.9947579749272,11212.310443014241
PE,Peru,PER,America,32510462.0,0.9514946604248519,0.6461381903903466,446439.1531109935,2020-03-20,2020-06-09,2021-01-27,39.55779476579604,160.87703652535833,57824.960762923896
PF,French_Polynesia,PYF,Oceania,279285.0,0.5806108094861776,1.089112902920288,56.92706406632092,2020-03-13,2020-03-31,2020-05-05,12.471971958492546,90.98442938779645,22.34573545229441
PH,Philippines,PHL,Asia,108116622.0,0.3990012352346165,0.1595965307280278,229103.50688004863,2020-04-02,2020-09-04,,101.8088834122149,248.23813895381903,12197.427858005076
PK,Pakistan,PAK,Asia,216565317.0,0.7439421132757652,0.15529359340203164,1382202.1393973115,2020-04-07,2020-08-21,,74.57878931767098,234.393642528361,96717.85090662021
PL,Poland,POL,Europe,37972812.0,0.9034147539090852,0.7255075655152954,47930.82282242352,2020-03-14,2020-05-15,2020-09-27,38.797498581686234,136.36575823764133,6328.743625616779
PR,Puerto_Rico,PRI,America,2933404.0,0.5604143067386178,0.3687778454054547,20357.477536963146,2020-03-04,2020-07-05,2021-05-06,65.4785046268172,186.9203110642631,1604.4860715302532
PT,Portugal,PRT,Europe,10276617.0,0.6750762005292291,0.7600047991286827,55859.16260657482,2020-02-10,2020-04-26,2020-11-07,39.62976731869874,116.74717889483593,7221.8148850754915
PY,Paraguay,PRY,America,7044639.0,0.2655813032515658,0.43247942800948536,5217.4765299936735,2020-04-08,2020-06-25,2020-11-15,57.690639299760704,177.06474620411976,465.3791093099714
QA,Qatar,QAT,Asia,2832071.0,0.9173513265826946,0.6637613100106524,146132.76952586335,2020-03-11,2020-06-08,2021-03-22,40.02402722583869,159.73733915859714,18709.569356432476
RO,Romania,ROU,Europe,19414458.0,0.777423259677426,0.7628383543775934,35781.739190239,2020-03-05,2020-05-08,2020-09-29,37.033192733065434,128.67549891693594,4946.756874527701
RS,Serbia,SRB,Europe,6963764.0,0.5986828626123305,0.672141273507344,22072.694391872563,2020-03-03,2020-05-02,2020-09-28,32.62986341614398,122.8349227522319,3457.3287807422685
RU,Russia,RUS,Europe,145872260.0,0.9809245915970988,0.7726968425900218,846909.46600298,2020-03-28,2020-05-25,2020-10-28,29.430768745817787,146.1039369011449,146829.94862082638
RW,Rwanda,RWA,Africa,12626938.0,0.5332061327882164,0.039925694186513754,24079.511467754066,2020-05-29,2020-10-26,,99.1123047736979,299.80658411588934,1355.061008765369
SA,Saudi_Arabia,SAU,Asia,34268529.0,0.8724293815723828,0.387766847020613,500295.89571519615,2020-03-18,2020-07-05,2021-05-02,53.68885975748545,186.9961458142213,47912.89629238989
SC,Seychelles,SYC,Africa,97741.0,0.6424856435663155,0.8357702724808449,13.16151143698976,2020-03-13,2020-04-02,2020-05-05,17.44757347001907,92.86153993088014,3.7841949116013933
SD,Sudan,SDN,Africa,42813237.0,0.9343354522811015,0.7568252187903859,12648.88966137781,2020-05-01,2020-06-03,2020-08-02,24.98797912466567,154.66796444327375,2573.1459975983735
SE,Sweden,SWE,Europe,10230185.0,0.8020428406738561,0.5423923350282472,128409.17515312038,2020-02-22,2020-06-07,2021-03-24,52.98471285033446,158.96066718885834,12453.34918048672
SG,Singapore,SGP,Asia,5804343.0,0.7391689150443616,0.8344555996062812,52872.33368350844,2020-02-27,2020-05-20,2020-12-30,41.62111856104435,140.5548469703643,6512.274829634106
SI,Slovenia,SVN,Europe,2080908.0,0.6837248531329533,0.7694842918343628,2096.209131382954,2020-02-28,2020-04-04,2020-06-26,21.441481603141195,94.93610826567783,494.76868737827596
SK,Slovakia,SVK,Europe,5450421.0,0.8393878494462615,0.4228612525402486,3989.4728706142187,2020-03-14,2020-05-04,2020-08-16,34.02570090948248,125.34037659231426,599.6631388857055
SL,Sierra_Leone,SLE,Africa,7813207.0,0.9091217453797931,0.7859511665756274,1905.9700804615359,2020-04-27,2020-05-30,2020-07-25,27.057535060677107,150.55921747543348,358.78632101007986
SM,San_Marino,SMR,Europe,34453.0,0.7674518496572619,0.8378714678579151,833.0632838997441,2020-02-11,2020-04-10,2020-10-11,27.027058796049854,101.0966954116129,157.00402520408488
SN,Senegal,SEN,Africa,16296362.0,0.9005322743325815,0.602934848305818,11484.941697186867,2020-04-13,2020-06-09,2020-09-28,39.045467712366474,160.75144292892284,1506.8681212679755
SO,Somalia,SOM,Africa,15442906.0,0.9220534322529297,0.8112979450420577,3604.1008612221162,2020-04-18,2020-05-19,2020-07-12,25.793118469197296,140.35898476419905,710.970294843963
SR,Suriname,SUR,America,581363.0,0.5484135061172851,0.34275652312486893,1560.8703727656123,2020-05-17,2020-07-08,2020-11-13,28.122919043354234,189.9246060816782,282.93371305157365
SS,South_Sudan,SSD,Africa,11062114.0,0.7771470890462111,0.8872291493494444,2260.9717018065503,2020-05-07,2020-05-30,2020-07-11,17.63773984171556,150.65304899373956,643.3054815023
ST,Sao_Tome_and_Principe,STP,Africa,215048.0,0.1553024622460194,0.5367848029721469,1331.9035592298114,2020-03-11,2020-05-30,2020-12-26,41.98557052548,151.33315143878832,162.6458480971601
SV,El_Salvador,SLV,America,6453550.0,0.7226929812306775,0.18772524134507973,35554.62057864037,2020-04-09,2020-08-13,2021-06-11,69.05212699339862,225.53581357518502,2671.748316466985
SX,Sint_Maarten,SXM,America,42389.0,0.7891824822257848,1.1598187255251113,66.3896851338885,2020-03-28,2020-04-12,2020-05-24,7.829360010600069,102.81325273649131,38.59626198626961
SZ,Eswatini,SWZ,Africa,1148133.0,0.2634842371444451,0.23360026874589784,3566.7847077336028,2020-04-06,2020-08-02,2021-04-23,69.46526214351265,215.18557404461032,266.15801394155517
TC,Turks_and_Caicos_islands,TCA,America,38194.0,0.07108581129899337,0.011810194169355998,2428.2085286349306,2020-03-02,2021-02-01,,157.12278684634936,398.1094554510171,116.53133463693342
TD,Chad,TCD,Africa,15946882.0,0.9416369101318917,0.8112533694788362,1067.4840100275972,2020-05-05,2020-05-17,2020-06-05,14.385804369516354,138.20965436462444,367.7291858929997
TG,Togo,TGO,Africa,8082359.0,0.6813957962274904,0.5735790157599231,1152.4114757136877,2020-05-05,2020-05-31,2020-07-09,29.53606508777252,152.46816395205383,199.09123950630143
TH,Thailand,THA,Asia,69625581.0,0.9274802809870757,0.8977784801098418,3540.962576437624,2020-03-23,2020-04-01,2020-04-15,11.767040981161353,92.42105593242027,1463.679481545447
TJ,Tajikistan,TJK,Asia,9321023.0,0.9543795338978381,0.9295920511851615,6459.822878504473,2020-04-30,2020-05-27,2020-07-26,16.019110518049846,147.99248755563104,2013.3498690905594
TN,Tunisia,TUN,Africa,11694721.0,0.9442646893195501,1.051332511413098,1117.629282119964,2020-03-23,2020-04-06,2020-04-30,12.05531530973643,96.85988311553336,452.3275989005672
TR,Turkey,TUR,Asia,82003882.0,0.7978165697453437,0.7633983596024381,263424.5446023629,2020-03-04,2020-04-29,2020-09-17,30.22439033081626,119.83986163363225,44489.18900560463
TT,Trinidad_and_Tobago,TTO,America,1394969.0,0.8456668797609211,1.0075724757639934,129.02297663642238,2020-03-15,2020-03-27,2020-04-17,9.514180713673632,86.73837813930992,64.13694562416569
UA,Ukraine,UKR,Europe,43993643.0,0.7684926296088861,0.5727290245924436,78557.9606278737,2020-03-25,2020-06-06,2020-11-14,43.49637371671746,158.2132705125763,9263.242737616658
UK,United_Kingdom,GBR,Europe,66647112.0,0.9865075319988702,0.9799344173204256,319902.0200205965,2020-03-12,2020-04-23,2020-08-17,21.29470451842223,113.99911707249197,76010.37098494607
US,United_States_of_America,USA,America,329064917.0,0.7889648757987833,0.7116954769310274,3774587.4881545114,2020-02-21,2020-05-15,2021-01-03,41.39834802966997,135.92090123549625,467378.2110684697
UY,Uruguay,URY,America,3461731.0,0.6543621933361418,0.673192891658699,1400.7275630919266,2020-03-02,2020-04-24,2020-07-25,43.11164376369727,115.18301791984743,166.6155860319755
UZ,Uzbekistan,UZB,Asia,32981715.0,0.14232888171737973,0.11252202917103303,72437.61147576931,2020-04-10,2020-09-30,,113.70175580780202,273.62867046592095,3582.122755272176
VA,Holy_See,VAT,Europe,815.0,0.2740203423873994,0.3192580077446719,37.503490163144754,2019-12-31,2020-05-20,,65.90698944002466,141.45280878699828,2.931769281050218
VC,Saint_Vincent_and_the_Grenadines,VCT,America,110593.0,0.18788809695012346,0.33744891013008704,85.78691050072455,2020-03-09,2020-06-01,2020-11-01,62.52318391318684,153.016081227345,7.0643786598301705
VE,Venezuela,VEN,America,28515829.0,0.3378553975012318,0.07104374042920225,84302.49328720302,2020-05-15,2020-09-07,2021-05-20,67.67678917310442,250.67015465027407,6482.019449623432
VG,British_Virgin_Islands,VGB,America,30033.0,0.7141105002609042,0.772822504611514,10.351665375560877,2020-04-02,2020-05-03,2020-07-02,22.19489181389395,123.87485685670433,2.3630262945138107
VI,United_States_Virgin_Islands,VIR,America,104579.0,0.19084564845882193,0.47187889732440363,193.08756005060638,2020-02-15,2020-06-19,2021-02-25,81.20419177938034,170.57082669729726,12.350276775820584
XK,Kosovo,XKX,Europe,1798506.0,0.23049991256150357,0.3115080161775435,9533.610163185122,2020-03-04,2020-07-12,2021-05-17,71.93808764260838,193.7187890341641,686.3348119380737
ZM,Zambia,ZMB,Africa,17861034.0,0.7340475475344295,0.7259645007594514,2248.0437251227972,2020-05-04,2020-05-27,2020-06-30,23.46363934184893,147.60060529542204,486.1975641319553
ZW,Zimbabwe,ZWE,Africa,14645473.0,0.8426216717946524,0.4761200803590285,1270.6876230960415,2020-06-06,2020-06-21,2020-07-12,24.1903400231788,173.34276792928685,266.83229494277805
